module code.gitea.io/tea

go 1.21

toolchain go1.23.4

require (
	code.gitea.io/gitea-vet v0.2.3
	code.gitea.io/sdk/gitea v0.19.0
	gitea.com/noerw/unidiff-comments v0.0.0-20220822113322-50f4daa0e35c
	github.com/AlecAivazis/survey/v2 v2.3.7
	github.com/adrg/xdg v0.5.3
	github.com/araddon/dateparse v0.0.0-20210429162001-6b43995a97de
	github.com/charmbracelet/glamour v0.8.0
	github.com/enescakir/emoji v1.0.0
	github.com/go-git/go-git/v5 v5.12.0
	github.com/muesli/termenv v0.15.3-0.20241212154518-8c990cd6cf4b
	github.com/olekukonko/tablewriter v0.0.5
	github.com/skratchdot/open-golang v0.0.0-20200116055534-eef842397966
	github.com/stretchr/testify v1.10.0
	github.com/urfave/cli/v2 v2.27.5
	golang.org/x/crypto v0.31.0
	golang.org/x/term v0.27.0
	gopkg.in/yaml.v3 v3.0.1
)

require (
	dario.cat/mergo v1.0.0 // indirect
	github.com/Microsoft/go-winio v0.6.1 // indirect
	github.com/ProtonMail/go-crypto v1.0.0 // indirect
	github.com/alecthomas/chroma/v2 v2.14.0 // indirect
	github.com/aymanbagabas/go-osc52/v2 v2.0.1 // indirect
	github.com/aymerick/douceur v0.2.0 // indirect
	github.com/charmbracelet/lipgloss v0.12.1 // indirect
	github.com/charmbracelet/x/ansi v0.1.4 // indirect
	github.com/cloudflare/circl v1.3.7 // indirect
	github.com/cpuguy83/go-md2man/v2 v2.0.5 // indirect
	github.com/cyphar/filepath-securejoin v0.2.4 // indirect
	github.com/davecgh/go-spew v1.1.1 // indirect
	github.com/davidmz/go-pageant v1.0.2 // indirect
	github.com/dlclark/regexp2 v1.11.0 // indirect
	github.com/emirpasic/gods v1.18.1 // indirect
	github.com/go-fed/httpsig v1.1.0 // indirect
	github.com/go-git/gcfg v1.5.1-0.20230307220236-3a3c6141e376 // indirect
	github.com/go-git/go-billy/v5 v5.5.0 // indirect
	github.com/golang/groupcache v0.0.0-20210331224755-41bb18bfe9da // indirect
	github.com/gorilla/css v1.0.1 // indirect
	github.com/hashicorp/go-version v1.6.0 // indirect
	github.com/jbenet/go-context v0.0.0-20150711004518-d14ea06fba99 // indirect
	github.com/kballard/go-shellquote v0.0.0-20180428030007-95032a82bc51 // indirect
	github.com/kevinburke/ssh_config v1.2.0 // indirect
	github.com/lucasb-eyer/go-colorful v1.2.0 // indirect
	github.com/mattn/go-colorable v0.1.13 // indirect
	github.com/mattn/go-isatty v0.0.20 // indirect
	github.com/mattn/go-runewidth v0.0.15 // indirect
	github.com/mgutz/ansi v0.0.0-20200706080929-d51e80ef957d // indirect
	github.com/microcosm-cc/bluemonday v1.0.27 // indirect
	github.com/muesli/reflow v0.3.0 // indirect
	github.com/pjbgf/sha1cd v0.3.0 // indirect
	github.com/pmezard/go-difflib v1.0.0 // indirect
	github.com/rivo/uniseg v0.4.7 // indirect
	github.com/russross/blackfriday/v2 v2.1.0 // indirect
	github.com/sergi/go-diff v1.3.2-0.20230802210424-5b0b94c5c0d3 // indirect
	github.com/skeema/knownhosts v1.2.2 // indirect
	github.com/xanzy/ssh-agent v0.3.3 // indirect
	github.com/xrash/smetrics v0.0.0-20240521201337-686a1a2994c1 // indirect
	github.com/yuin/goldmark v1.7.4 // indirect
	github.com/yuin/goldmark-emoji v1.0.3 // indirect
	golang.org/x/mod v0.17.0 // indirect
	golang.org/x/net v0.27.0 // indirect
	golang.org/x/sync v0.10.0 // indirect
	golang.org/x/sys v0.28.0 // indirect
	golang.org/x/text v0.21.0 // indirect
	golang.org/x/tools v0.21.1-0.20240508182429-e35e4ccd0d2d // indirect
	gopkg.in/warnings.v0 v0.1.2 // indirect
)
